<?xml version="1.0" encoding="utf-8"?>
<robot xmlns:xacro="http://www.ros.org/wiki/xacro" name="panda">
  <xacro:arg name="gazebo_plugin" default="" />
  <xacro:include filename="$(find franka_description)/robots/panda_arm.xacro"/>
  <xacro:include filename="$(find franka_description)/robots/handle.xacro"/>
  <xacro:panda_arm gazebo_plugin="$(arg gazebo_plugin)"/>
  <xacro:handle ns="panda" rpy="0 0 ${-pi/4}" connected_to="panda_link8"/>
</robot>
